…
``` r
data("ny_noaa")

(ny_noaa <- 
  ny_noaa %>% 
  separate(date, into = c("year", "month", "day"),sep = "-") %>% 
  mutate(tmax = as.numeric(tmax),
         tmin = as.numeric(tmin),
         year = as.numeric(year),
         month = as.numeric(month),
         day = as.numeric(day)))
```

    ## # A tibble: 2,595,176 × 9
    ##    id           year month   day  prcp  snow  snwd  tmax  tmin
    ##    <chr>       <dbl> <dbl> <dbl> <int> <int> <int> <dbl> <dbl>
    ##  1 US1NYAB0001  2007    11     1    NA    NA    NA    NA    NA
    ##  2 US1NYAB0001  2007    11     2    NA    NA    NA    NA    NA
    ##  3 US1NYAB0001  2007    11     3    NA    NA    NA    NA    NA
    ##  4 US1NYAB0001  2007    11     4    NA    NA    NA    NA    NA
    ##  5 US1NYAB0001  2007    11     5    NA    NA    NA    NA    NA
    ##  6 US1NYAB0001  2007    11     6    NA    NA    NA    NA    NA
    ##  7 US1NYAB0001  2007    11     7    NA    NA    NA    NA    NA
    ##  8 US1NYAB0001  2007    11     8    NA    NA    NA    NA    NA
    ##  9 US1NYAB0001  2007    11     9    NA    NA    NA    NA    NA
    ## 10 US1NYAB0001  2007    11    10    NA    NA    NA    NA    NA
    ## # ℹ 2,595,166 more rows

``` r
ny_noaa %>% 
  count(snow) %>%
  arrange(desc(n))
```

    ## # A tibble: 282 × 2
    ##     snow       n
    ##    <int>   <int>
    ##  1     0 2008508
    ##  2    NA  381221
    ##  3    25   31022
    ##  4    13   23095
    ##  5    51   18274
    ##  6    76   10173
    ##  7     8    9962
    ##  8     5    9748
    ##  9    38    9197
    ## 10     3    8790
    ## # ℹ 272 more rows
…
